testbench/tb_Adder16.vcd
$date
	Tue Mar 28 14:58:50 2023
$end
$version
	Icarus Verilog
$end
$timescale
	1s
$end
$scope module tb_Adder16 $end
$var wire 16 ! s [15:0] $end
$var wire 1 " ovfl $end
$var reg 16 # a [15:0] $end
$var reg 16 $ b [15:0] $end
$scope module mymodule $end
$var wire 16 % a [15:0] $end
$var wire 16 & b [15:0] $end
$var wire 16 ' sum [15:0] $end
$var wire 1 " overflow $end
$var wire 16 ( carry [15:0] $end
$scope module FullAdder1 $end
$var wire 1 ) a $end
$var wire 1 * b $end
$var wire 1 + cin $end
$var wire 1 , cout $end
$var wire 1 - sum1 $end
$var wire 1 . sum $end
$var wire 1 / carry2 $end
$var wire 1 0 carry1 $end
$scope module HalfAdder1 $end
$var wire 1 ) a $end
$var wire 1 * b $end
$var wire 1 0 carry $end
$var wire 1 - sum $end
$upscope $end
$scope module HalfAdder2 $end
$var wire 1 - a $end
$var wire 1 + b $end
$var wire 1 / carry $end
$var wire 1 . sum $end
$upscope $end
$upscope $end
$scope module FullAdder10 $end
$var wire 1 1 a $end
$var wire 1 2 b $end
$var wire 1 3 cin $end
$var wire 1 4 cout $end
$var wire 1 5 sum1 $end
$var wire 1 6 sum $end
$var wire 1 7 carry2 $end
$var wire 1 8 carry1 $end
$scope module HalfAdder1 $end
$var wire 1 1 a $end
$var wire 1 2 b $end
$var wire 1 8 carry $end
$var wire 1 5 sum $end
$upscope $end
$scope module HalfAdder2 $end
$var wire 1 5 a $end
$var wire 1 3 b $end
$var wire 1 7 carry $end
$var wire 1 6 sum $end
$upscope $end
$upscope $end
$scope module FullAdder11 $end
$var wire 1 9 a $end
$var wire 1 : b $end
$var wire 1 ; cin $end
$var wire 1 < cout $end
$var wire 1 = sum1 $end
$var wire 1 > sum $end
$var wire 1 ? carry2 $end
$var wire 1 @ carry1 $end
$scope module HalfAdder1 $end
$var wire 1 9 a $end
$var wire 1 : b $end
$var wire 1 @ carry $end
$var wire 1 = sum $end
$upscope $end
$scope module HalfAdder2 $end
$var wire 1 = a $end
$var wire 1 ; b $end
$var wire 1 ? carry $end
$var wire 1 > sum $end
$upscope $end
$upscope $end
$scope module FullAdder12 $end
$var wire 1 A a $end
$var wire 1 B b $end
$var wire 1 C cin $end
$var wire 1 D cout $end
$var wire 1 E sum1 $end
$var wire 1 F sum $end
$var wire 1 G carry2 $end
$var wire 1 H carry1 $end
$scope module HalfAdder1 $end
$var wire 1 A a $end
$var wire 1 B b $end
$var wire 1 H carry $end
$var wire 1 E sum $end
$upscope $end
$scope module HalfAdder2 $end
$var wire 1 E a $end
$var wire 1 C b $end
$var wire 1 G carry $end
$var wire 1 F sum $end
$upscope $end
$upscope $end
$scope module FullAdder13 $end
$var wire 1 I a $end
$var wire 1 J b $end
$var wire 1 K cin $end
$var wire 1 L cout $end
$var wire 1 M sum1 $end
$var wire 1 N sum $end
$var wire 1 O carry2 $end
$var wire 1 P carry1 $end
$scope module HalfAdder1 $end
$var wire 1 I a $end
$var wire 1 J b $end
$var wire 1 P carry $end
$var wire 1 M sum $end
$upscope $end
$scope module HalfAdder2 $end
$var wire 1 M a $end
$var wire 1 K b $end
$var wire 1 O carry $end
$var wire 1 N sum $end
$upscope $end
$upscope $end
$scope module FullAdder14 $end
$var wire 1 Q a $end
$var wire 1 R b $end
$var wire 1 S cin $end
$var wire 1 T cout $end
$var wire 1 U sum1 $end
$var wire 1 V sum $end
$var wire 1 W carry2 $end
$var wire 1 X carry1 $end
$scope module HalfAdder1 $end
$var wire 1 Q a $end
$var wire 1 R b $end
$var wire 1 X carry $end
$var wire 1 U sum $end
$upscope $end
$scope module HalfAdder2 $end
$var wire 1 U a $end
$var wire 1 S b $end
$var wire 1 W carry $end
$var wire 1 V sum $end
$upscope $end
$upscope $end
$scope module FullAdder15 $end
$var wire 1 Y a $end
$var wire 1 Z b $end
$var wire 1 [ cin $end
$var wire 1 " cout $end
$var wire 1 \ sum1 $end
$var wire 1 ] sum $end
$var wire 1 ^ carry2 $end
$var wire 1 _ carry1 $end
$scope module HalfAdder1 $end
$var wire 1 Y a $end
$var wire 1 Z b $end
$var wire 1 _ carry $end
$var wire 1 \ sum $end
$upscope $end
$scope module HalfAdder2 $end
$var wire 1 \ a $end
$var wire 1 [ b $end
$var wire 1 ^ carry $end
$var wire 1 ] sum $end
$upscope $end
$upscope $end
$scope module FullAdder2 $end
$var wire 1 ` a $end
$var wire 1 a b $end
$var wire 1 b cin $end
$var wire 1 c cout $end
$var wire 1 d sum1 $end
$var wire 1 e sum $end
$var wire 1 f carry2 $end
$var wire 1 g carry1 $end
$scope module HalfAdder1 $end
$var wire 1 ` a $end
$var wire 1 a b $end
$var wire 1 g carry $end
$var wire 1 d sum $end
$upscope $end
$scope module HalfAdder2 $end
$var wire 1 d a $end
$var wire 1 b b $end
$var wire 1 f carry $end
$var wire 1 e sum $end
$upscope $end
$upscope $end
$scope module FullAdder3 $end
$var wire 1 h a $end
$var wire 1 i b $end
$var wire 1 j cin $end
$var wire 1 k cout $end
$var wire 1 l sum1 $end
$var wire 1 m sum $end
$var wire 1 n carry2 $end
$var wire 1 o carry1 $end
$scope module HalfAdder1 $end
$var wire 1 h a $end
$var wire 1 i b $end
$var wire 1 o carry $end
$var wire 1 l sum $end
$upscope $end
$scope module HalfAdder2 $end
$var wire 1 l a $end
$var wire 1 j b $end
$var wire 1 n carry $end
$var wire 1 m sum $end
$upscope $end
$upscope $end
$scope module FullAdder4 $end
$var wire 1 p a $end
$var wire 1 q b $end
$var wire 1 r cin $end
$var wire 1 s cout $end
$var wire 1 t sum1 $end
$var wire 1 u sum $end
$var wire 1 v carry2 $end
$var wire 1 w carry1 $end
$scope module HalfAdder1 $end
$var wire 1 p a $end
$var wire 1 q b $end
$var wire 1 w carry $end
$var wire 1 t sum $end
$upscope $end
$scope module HalfAdder2 $end
$var wire 1 t a $end
$var wire 1 r b $end
$var wire 1 v carry $end
$var wire 1 u sum $end
$upscope $end
$upscope $end
$scope module FullAdder5 $end
$var wire 1 x a $end
$var wire 1 y b $end
$var wire 1 z cin $end
$var wire 1 { cout $end
$var wire 1 | sum1 $end
$var wire 1 } sum $end
$var wire 1 ~ carry2 $end
$var wire 1 !" carry1 $end
$scope module HalfAdder1 $end
$var wire 1 x a $end
$var wire 1 y b $end
$var wire 1 !" carry $end
$var wire 1 | sum $end
$upscope $end
$scope module HalfAdder2 $end
$var wire 1 | a $end
$var wire 1 z b $end
$var wire 1 ~ carry $end
$var wire 1 } sum $end
$upscope $end
$upscope $end
$scope module FullAdder6 $end
$var wire 1 "" a $end
$var wire 1 #" b $end
$var wire 1 $" cin $end
$var wire 1 %" cout $end
$var wire 1 &" sum1 $end
$var wire 1 '" sum $end
$var wire 1 (" carry2 $end
$var wire 1 )" carry1 $end
$scope module HalfAdder1 $end
$var wire 1 "" a $end
$var wire 1 #" b $end
$var wire 1 )" carry $end
$var wire 1 &" sum $end
$upscope $end
$scope module HalfAdder2 $end
$var wire 1 &" a $end
$var wire 1 $" b $end
$var wire 1 (" carry $end
$var wire 1 '" sum $end
$upscope $end
$upscope $end
$scope module FullAdder7 $end
$var wire 1 *" a $end
$var wire 1 +" b $end
$var wire 1 ," cin $end
$var wire 1 -" cout $end
$var wire 1 ." sum1 $end
$var wire 1 /" sum $end
$var wire 1 0" carry2 $end
$var wire 1 1" carry1 $end
$scope module HalfAdder1 $end
$var wire 1 *" a $end
$var wire 1 +" b $end
$var wire 1 1" carry $end
$var wire 1 ." sum $end
$upscope $end
$scope module HalfAdder2 $end
$var wire 1 ." a $end
$var wire 1 ," b $end
$var wire 1 0" carry $end
$var wire 1 /" sum $end
$upscope $end
$upscope $end
$scope module FullAdder8 $end
$var wire 1 2" a $end
$var wire 1 3" b $end
$var wire 1 4" cin $end
$var wire 1 5" cout $end
$var wire 1 6" sum1 $end
$var wire 1 7" sum $end
$var wire 1 8" carry2 $end
$var wire 1 9" carry1 $end
$scope module HalfAdder1 $end
$var wire 1 2" a $end
$var wire 1 3" b $end
$var wire 1 9" carry $end
$var wire 1 6" sum $end
$upscope $end
$scope module HalfAdder2 $end
$var wire 1 6" a $end
$var wire 1 4" b $end
$var wire 1 8" carry $end
$var wire 1 7" sum $end
$upscope $end
$upscope $end
$scope module FullAdder9 $end
$var wire 1 :" a $end
$var wire 1 ;" b $end
$var wire 1 <" cin $end
$var wire 1 =" cout $end
$var wire 1 >" sum1 $end
$var wire 1 ?" sum $end
$var wire 1 @" carry2 $end
$var wire 1 A" carry1 $end
$scope module HalfAdder1 $end
$var wire 1 :" a $end
$var wire 1 ;" b $end
$var wire 1 A" carry $end
$var wire 1 >" sum $end
$upscope $end
$scope module HalfAdder2 $end
$var wire 1 >" a $end
$var wire 1 <" b $end
$var wire 1 @" carry $end
$var wire 1 ?" sum $end
$upscope $end
$upscope $end
$scope module HalfAdder1 $end
$var wire 1 B" a $end
$var wire 1 C" b $end
$var wire 1 D" carry $end
$var wire 1 E" sum $end
$upscope $end
$upscope $end
$upscope $end
$enddefinitions $end
#0
$dumpvars
0E"
0D"
0C"
0B"
0A"
0@"
0?"
0>"
0="
0<"
0;"
0:"
09"
08"
07"
06"
05"
04"
03"
02"
01"
00"
0/"
0."
0-"
0,"
0+"
0*"
0)"
0("
0'"
0&"
0%"
0$"
0#"
0""
0!"
0~
0}
0|
0{
0z
0y
0x
0w
0v
0u
0t
0s
0r
0q
0p
0o
0n
0m
0l
0k
0j
0i
0h
0g
0f
0e
0d
0c
0b
0a
0`
0_
0^
0]
0\
0[
0Z
0Y
0X
0W
0V
0U
0T
0S
0R
0Q
0P
0O
0N
0M
0L
0K
0J
0I
0H
0G
0F
0E
0D
0C
0B
0A
0@
0?
0>
0=
0<
0;
0:
09
08
07
06
05
04
03
02
01
00
0/
0.
0-
0,
0+
0*
0)
bz000000000000000 (
b0 '
b0 &
b0 %
b0 $
b0 #
0"
b0 !
$end
#1
1>
1;
14
17
13
1="
1@"
1<"
15"
18"
14"
1-"
10"
1,"
1%"
1("
1N
1$"
1K
1{
1D
1~
1G
1.
1z
1C
1e
0}
0/"
07"
0?"
06
0F
1V
1]
1+
1s
b1110100000000110 !
b1110100000000110 '
0'"
1<
1d
1|
1."
16"
1>"
15
1E
1U
1\
bz001111111110001 (
1D"
1w
1&"
1@
1C"
1a
1q
1y
1+"
13"
1;"
12
1:
1B
1R
1Z
1B"
1p
1""
19
b1101111110110101 $
b1101111110110101 &
b100001010001 #
b100001010001 %
#2
1v
1,"
1r
1%"
1k
0'"
1("
1n
1$"
1j
1{
1c
0}
1~
0e
1f
1z
0.
1b
1C
0u
1s
0V
0+
1,
0m
1/"
00"
0>
1?
1<
1F
0G
1t
0w
0U
b1011000010000001 !
b1011000010000001 '
1E"
bz001111111111110 (
0D"
10
1l
0."
11"
1=
0@
0E
1H
1*
0a
0q
0y
03"
0R
0B"
1)
1`
1h
1x
1*"
12"
09
1A
b1001111010000011 $
b1001111010000011 &
b1000111111110 #
b1000111111110 %
#3
0z
0s
1u
0v
0r
03
0k
0="
1m
0n
0,"
1?"
0@"
0j
0%"
0<"
0c
1'"
0("
05"
0;
0C
0N
1e
0f
0$"
17"
08"
04
0<
0K
1.
0b
0{
04"
06
07
0>
0?
1F
0G
0D
1V
1+
0,
0}
0~
1/"
00"
0-"
05
0=
1E
0H
1U
b1101001111011110 !
b1101001111011110 '
0E"
bz000000000000001 (
1D"
00
0|
1."
01"
0*
1i
1q
1#"
13"
0;"
02
0:
0B
1R
1B"
0)
0h
0p
0x
0""
0*"
02"
1:"
b1100000111011001 $
b1100000111011001 &
b1001000000101 #
b1001000000101 %
#4
1"
0]
1^
1[
1T
0V
1W
1S
1L
1O
1K
1D
0F
1G
1C
1<
1?
1;
14
17
1r
13
1k
1="
0m
1n
0b
0?"
1@"
1j
0,
1<"
0+
0e
1c
1u
0N
1.
0/
1}
07"
15"
06
0>
b11110011 !
b11110011 '
1E"
bz111111100001100 (
0D"
0d
1g
0t
1M
1-
1|
06"
19"
15
1=
0C"
1a
0q
0#"
1;"
1J
1)
1x
1""
12"
0:"
11
19
b1110001110001100 $
b1110001110001100 &
b1110101100111 #
b1110101100111 %
#5
0K
0D
1F
0G
0u
0C
1e
0r
13
0<
1b
0k
1="
1>
0?
1,
0[
1m
0n
18"
0?"
1@"
0;
0.
1/
0T
0"
0j
14"
1<"
04
1+
1V
0W
0]
0^
0c
0}
0'"
0/"
1-"
07"
15"
16
07
0N
0O
b101110000001100 !
b101110000001100 '
0E"
bz010001110000011 (
1D"
0U
0\
0g
0|
0&"
0."
11"
16"
09"
05
0M
1P
1C"
0a
0i
1:
0R
0Z
0`
1h
0x
0""
1*"
02"
01
09
1I
b10101110000001 $
b10101110000001 &
b11000010001011 #
b11000010001011 %
#6
1N
1K
1D
0F
1G
1C
1]
1<
1u
0<"
1[
0>
1?
1r
05"
1T
1j
04"
1;
1.
0/
1m
1k
07"
08"
0V
1W
1c
1/"
0-"
b1010010010011110 !
b1010010010011110 '
0?"
0@"
bz111111000001111 (
14
0-
10
0l
1o
06"
1U
1g
1."
01"
0>"
1A"
18
1*
1a
1i
03"
12
0:
1R
1`
0*"
1:"
11
19
b110011010001111 $
b110011010001111 &
b11111000001111 #
b11111000001111 %
#7
1@"
0]
1<"
1C
0[
15"
1<
0T
0e
0m
0u
18"
0>
1?
0K
1V
0W
0.
0b
0j
0r
14"
13
1;
0D
0S
1}
07"
0+
0,
0c
0k
1'"
0/"
1-"
0?"
1="
06
17
14
1F
0G
1N
0O
0L
1|
16"
b111000001100001 !
b111000001100001 '
1E"
bz000111110000000 (
0D"
00
0g
0o
1&"
0."
11"
1>"
0A"
15
08
0E
1M
0P
0*
0a
0i
1y
13"
1:
0R
0B"
0)
0`
0h
1""
1*"
0:"
01
09
0A
0I
1Q
b10111110100001 $
b10111110100001 &
b100000011000000 #
b100000011000000 %
#8
0C
0<
0"
1>
0?
0^
0;
0[
04
0T
16
07
1V
0W
03
0S
0="
0L
1?"
0@"
1N
0O
0<"
0K
05"
bz000000010000000 (
0D
17"
08"
1F
0G
1]
1e
1u
b1111111100110101 !
b1111111100110101 '
0'"
06"
1E
1\
1d
1t
0&"
0C"
0y
03"
02
1B
1Z
1B"
1`
1p
1x
0""
11
b1011101010000000 $
b1011101010000000 &
b100010010110101 #
b100010010110101 %
#9
1/"
1,"
1%"
1"
1("
0]
1^
1z
1$"
1[
0u
1s
1}
1{
0'"
b11111110100101 !
b11111110100101 '
0V
bz100000011110000 (
1T
0t
1w
0|
1!"
1&"
0U
1X
1C"
1q
1y
1#"
0B
1R
0B"
1A
b1110101011110001 $
b1110101011110001 &
b101010010110100 #
b101010010110100 %
#10
0;
04
16
07
1m
03
1j
0="
1c
1?"
0@"
0,"
0e
1f
1u
0}
0<"
0%"
04"
1K
1b
1r
0z
0$"
05"
1C
0'"
0("
1/"
00"
0-"
1F
1D
1N
1,
1k
0s
0{
17"
08"
b11011110011001 !
b11011110011001 '
0>
bz101100000001110 (
1<
0&"
1."
01"
0E
1H
0M
10
1o
0w
0!"
16"
0=
1@
1*
1i
0q
0y
0#"
0+"
0;"
1B
0J
1)
1h
0p
0x
12"
1:"
19
b1101100000001011 $
b1101100000001011 &
b101111110001110 #
b101111110001110 %
#11
1m
1j
1"
1c
0}
1W
0F
0]
1^
0e
1f
0z
1S
0C
1[
1/
1b
0r
0s
1L
1>
0<
0V
1T
1+
0.
1,
0k
1u
0v
0N
1O
1=
0@
1U
0X
b111110011000 !
b111110011000 '
0E"
bz111000000000111 (
1D"
1-
00
0o
1t
1M
0i
1+"
13"
1;"
12
0:
0R
1B"
0)
0h
1p
0*"
02"
0:"
01
1I
b1001011110000011 $
b1001011110000011 &
b111100000010101 #
b111100000010101 %
#12
1,"
1%"
1("
1$"
1{
1~
1z
1s
1;
0b
0u
1v
14
0,
1r
1F
06
17
1.
0/
1k
1C
13
0+
0e
0f
0m
1n
0}
1/"
1>
1<
1V
0W
0'"
0?"
1="
b101100110000011 !
b101100110000011 '
1E"
bz111111001111100 (
0D"
0d
1g
1l
1|
0."
0=
1@
0U
1X
1&"
0>"
1A"
0C"
1a
1i
1y
0+"
02
1:
1R
1""
1:"
11
b1101101100101110 $
b1101101100101110 &
b111111001010101 #
b111111001010101 %
#13
0?"
0<"
05"
1S
17"
08"
0>
1L
0$"
1f
0z
0,"
04"
0;
0N
1O
1j
0{
1b
0s
0%"
0-"
03
04
1K
1[
1+
0e
1c
0}
0~
1.
1,
1m
0n
1u
0v
0'"
0("
1/"
00"
0="
06
07
0F
1G
1D
0V
1W
1T
1]
0^
b1000000110011010 !
b1000000110011010 '
0E"
bz111100000001111 (
1D"
1d
0g
0|
0-
10
0l
1o
0t
0&"
1."
0A"
05
1E
0H
1U
0X
0\
1_
1C"
0a
0y
0;"
1J
1)
1h
0p
0""
1*"
0:"
01
0A
0I
0Q
1Y
b1111100100001011 $
b1111100100001011 &
b1000100010001111 #
b1000100010001111 %
#14
0]
1'"
0[
1$"
0K
0T
1{
0D
1V
0W
1~
1F
0G
0S
1z
1?"
0.
0C
0L
1r
1s
1,"
1<"
0+
16
1>
0<
0N
0O
0m
1n
1k
0u
1v
0}
1%"
1/"
07"
15"
b101111011000001 !
b101111011000001 '
1E"
bz000000101111110 (
0D"
15
1=
0@
0M
1l
0o
1t
1|
1)"
0."
06"
19"
0C"
1#"
12
0:
0J
0h
1p
1x
1""
0*"
12"
b1101010101001010 $
b1101010101001010 &
b1000100101110111 #
b1000100101110111 %
#15
0'"
0$"
0{
1}
0~
0z
1]
0s
1[
1u
0v
1T
0r
0V
1W
0k
1S
17"
1m
0n
1L
14"
0j
1O
1.
1-"
0b
0c
1K
1+
0/"
10"
0N
0,
0e
0f
0F
1D
b1000111100111010 !
b1000111100111010 '
0E"
bz111000111000001 (
1D"
1."
1M
00
0d
0E
1H
1C"
0*
0i
1y
1+"
1J
0)
0`
1h
0x
1A
b1111010111100001 $
b1111010111100001 &
b1001100101011001 #
b1001100101011001 %
#16
1z
1s
0u
1v
1r
1k
1;
0m
1n
14"
14
1j
0S
1-"
06
17
0]
1c
0L
0/"
10"
13
0[
1f
1("
1N
0O
1,"
1<"
1="
0T
1b
1$"
0K
0e
0'"
1%"
07"
18"
15"
0?"
1@"
0V
0W
1,
1}
1{
b10100000100010 !
b10100000100010 '
1>
bz000011111111111 (
0D
1d
1&"
0)"
16"
09"
1>"
0U
10
0|
1!"
0=
0H
1*
1a
0#"
0+"
03"
1;"
02
0B
0J
0R
1)
1x
1*"
11
09
0A
1I
b1000001000100111 $
b1000001000100111 &
b1010010111111011 #
b1010010111111011 %
#17
1V
1S
1L
0N
1O
0j
1K
0c
0}
0>
1D
1e
0f
0z
0;
1G
0.
0b
0s
0$"
04
1C
0m
0n
0'"
0("
0F
1]
0"
0+
0,
1u
0v
0{
16
07
1<
0l
1o
0&"
1)"
1E
1\
0_
b1100010000010101 !
b1100010000010101 '
1E"
bz011101111001000 (
0D"
00
0t
0!"
05
1@
0*
0a
1i
0y
1#"
1+"
1:
1B
0Z
0B"
0)
1`
0p
0x
0*"
01
19
b1101011001001 $
b1101011001001 &
b1010100101001100 #
b1010100101001100 %
#18
0("
1m
0$"
1"
1j
0{
0]
1^
1c
0~
1[
0e
1f
0z
0C
1T
1b
0r
0s
0,"
17"
08"
1>
0<
1N
0O
0V
1W
1,
0k
1u
0v
1}
1'"
bz111001110000110 (
0%"
0/"
00"
b10110101111001 !
b10110101111001 '
0F
0G
06"
19"
1=
0@
0M
1P
1U
10
0o
1t
1|
1&"
0)"
0."
11"
0E
1H
1*
0i
13"
0;"
0:
1J
1R
1)
0h
1p
1x
0""
1*"
1:"
1A
b111000111000011 $
b111000111000011 &
b1011101110110110 #
b1011101110110110 %
#19
10"
1,"
1%"
0'"
1("
1m
1G
1$"
1j
1C
1{
1c
06
1<
0}
1~
1N
0e
1f
17"
03
0>
1?
1z
1K
1/
1b
1r
14"
0="
1;
1u
1s
0F
1D
1]
0^
1+
0.
1,
1k
0/"
1-"
1?"
0@"
14
0t
1w
1E
0H
0\
1_
b1010001100011000 !
b1010001100011000 '
0E"
bz111110111111111 (
1D"
1-
00
1o
1."
01"
0>"
18
1i
1q
1y
0#"
12
0B
1Z
1B"
0)
1h
0x
1""
0*"
0:"
11
b1110010110111011 $
b1110010110111011 &
b1011110101011101 #
b1011110101011101 %
#20
07"
04"
0-"
0]
1/"
00"
0b
0u
0$"
0[
0j
0,"
0,
0r
0{
0;
1S
0T
0c
0%"
0/
1m
0n
0k
1}
0~
16
04
0>
0?
0N
1O
1L
1V
0W
0+
0e
0f
0'"
0("
0-
1l
0o
0|
15
08
0=
1@
1M
0P
0U
b100011010101001 !
b100011010101001 '
1E"
bz011100100010000 (
0D"
0d
0&"
0*
0i
0y
0+"
02
1:
0J
0R
0B"
0`
0""
1*"
b1000100100010001 $
b1000100100010001 &
b1011110110011000 #
b1011110110011000 %
#21
0>
0;
04
16
07
17"
0}
1'"
03
1]
14"
1j
0z
1$"
1,"
0<"
0="
1[
1/"
1-"
1F
0G
1.
1c
1m
1u
0s
1{
1%"
05"
1?"
0@"
bz111100011100100 (
1T
b1101011111011010 !
b1101011111011010 '
0E"
0."
11"
0E
1H
1-
1g
0l
1t
0w
1!"
1)"
09"
1>"
1X
0C"
1a
1y
1#"
1+"
03"
1B
1J
1R
1)
1`
0h
0p
1x
1""
02"
1:"
0I
1Q
b1111100011110100 $
b1111100011110100 &
b1101111011100110 #
b1101111011100110 %
#22
1f
1m
1]
0/"
07"
1b
1j
13
1[
0,"
04"
0C
0K
0.
1,
0e
1c
0?"
1="
0V
1W
1T
0%"
0-"
16
0<
1F
0G
bz110001000100110 (
0D
0N
0O
0-
10
1d
0g
0>"
1A"
1U
0X
b1001010001011001 !
b1001010001011001 '
1E"
0)"
01"
05
0@
1E
0H
0M
1P
1*
0a
0#"
0+"
1;"
0:
0R
1B"
0""
0*"
01
09
0A
1I
b1011001000110010 $
b1011001000110010 &
b1110001000100111 #
b1110001000100111 %
#23
1O
1K
1D
1}
0F
1G
1z
1C
1s
1<
0u
1v
0/"
1?
1r
0,"
1@"
1;
1k
1S
0$"
0%"
1<"
13
14
0m
1n
0N
1L
1V
0W
0]
1^
1"
0{
1'"
0("
15"
0?"
bz111111100011110 (
1="
06
17
b100000001100001 !
b100000001100001 '
0>
1l
1M
0P
0U
1X
1\
0_
0!"
1&"
19"
1>"
0A"
15
1=
1a
1i
0q
0y
13"
0J
1R
0Z
0`
1p
0x
1""
12"
0:"
11
19
b101001100001110 $
b101001100001110 &
b1110110101010011 #
b1110110101010011 %
#24
1C
1<
0>
1?
0r
1;
0k
14
1m
0n
06
17
0j
13
0c
0}
1="
1e
0f
0z
18"
0?"
1@"
1[
0b
0s
14"
1<"
1N
0O
0V
1W
1T
1]
0^
1.
0,
0u
0v
0'"
1-"
07"
bz111111110000000 (
15"
b1011000000001111 !
b1011000000001111 '
1F
0G
0M
1P
1U
0X
0\
1_
1-
00
0t
0&"
11"
16"
09"
0E
1H
1C"
0a
0i
1+"
0;"
12
1:
1J
0R
1Z
0B"
0)
1`
1h
0p
0""
1*"
02"
1:"
01
09
1A
b1011110110000011 $
b1011110110000011 &
b1111001010001100 #
b1111001010001100 %
#25
04"
0.
1u
1'"
1?"
0@"
1V
0W
1}
bz111111100000000 (
0-"
b1111001001111101 !
b1111001001111101 '
07"
08"
0-
1t
1&"
0>"
1A"
0U
1X
1|
01"
06"
19"
0*
1i
1q
1#"
0+"
1;"
1R
0h
1x
0*"
12"
b1111111101011001 $
b1111111101011001 &
b1111001100100100 #
b1111001100100100 %
#26
17"
14"
1-"
10"
1,"
1%"
1j
0'"
1("
1c
1$"
0e
1f
0F
1{
1b
0C
1V
0}
1~
1,
0<
1S
1z
0<"
03
1/
1m
0/"
1>
0?
0N
1O
1L
1+
0u
1s
05"
1?"
0@"
0="
06
07
1-
0l
1."
0=
1M
0P
b1100101100001000 !
b1100101100001000 '
0E"
bz111010011110111 (
1D"
0t
1w
09"
1>"
0A"
05
18
1*
1a
0i
1y
1+"
03"
0:
0J
1B"
0`
1p
0x
02"
0:"
11
b1101011011110111 $
b1101011011110111 &
b1111010000010001 #
b1111010000010001 %
#27
1$"
0m
1{
0j
0}
1~
1>
1]
1v
1<"
17
0c
1z
1;
1[
1r
15"
13
0+
1e
0f
0u
1s
06
14
0V
1W
1T
0.
0/
1k
1'"
0("
07"
18"
1?"
1="
b1000101001000101 !
b1000101001000101 '
1E"
bz111011111111010 (
0D"
0d
1t
0w
15
08
1U
0X
0-
10
1o
0&"
1)"
16"
0>"
1A"
0C"
0a
1i
0q
02
0R
1)
1h
1""
12"
1:"
b1001001011101010 $
b1001001011101010 &
b1111011101011011 #
b1111011101011011 %
#28
0'"
0$"
1>
1S
0{
1;
1L
0n
1}
0~
14
0N
1O
0j
0z
06
17
1G
0r
1K
0b
0c
0s
13
1C
1m
0k
0F
1D
1V
0W
1.
0,
1e
0f
0u
0v
0?"
1@"
1="
bz111111111000000 (
1<
1l
0o
1E
0H
0U
1X
b1100100000101110 !
b1100100000101110 '
0E"
1-
00
1d
0t
1>"
0A"
1@
0i
0+"
12
1:
0B
1R
0B"
0)
1`
0p
1*"
0:"
01
19
b1100111001100010 $
b1100111001100010 &
b1111100111001100 #
b1111100111001100 %
#29
1u
1'"
1j
1r
1b
1z
1$"
1e
1c
1m
1k
1/"
00"
17"
08"
1F
0G
1N
0O
1+
1.
1,
1s
1}
1{
1?"
0@"
b1111111111111110 !
b1111111111111110 '
16
07
0d
1g
0l
1o
0."
11"
06"
19"
0E
1H
0M
1P
bz111111111111111 (
1D"
0-
10
1w
0|
1!"
0>"
1A"
05
18
1C"
1a
1i
1q
1+"
13"
1B
1J
1B"
1)
1p
1x
1:"
11
b1111111111111111 $
b1111111111111111 &
b1111111111111111 #
b1111111111111111 %
