testbench/tb_Increment16.vcd
$date
	Tue Mar 28 15:04:13 2023
$end
$version
	Icarus Verilog
$end
$timescale
	1s
$end
$scope module tb_Increment16 $end
$var wire 16 ! out [15:0] $end
$var reg 16 " in [15:0] $end
$scope module mymodule $end
$var wire 16 # in [15:0] $end
$var wire 16 $ out [15:0] $end
$var wire 1 % carry $end
$scope module Adder16_1 $end
$var wire 16 & a [15:0] $end
$var wire 16 ' b [15:0] $end
$var wire 16 ( sum [15:0] $end
$var wire 1 % overflow $end
$var wire 16 ) carry [15:0] $end
$scope module FullAdder1 $end
$var wire 1 * a $end
$var wire 1 + b $end
$var wire 1 , cin $end
$var wire 1 - cout $end
$var wire 1 . sum1 $end
$var wire 1 / sum $end
$var wire 1 0 carry2 $end
$var wire 1 1 carry1 $end
$scope module HalfAdder1 $end
$var wire 1 * a $end
$var wire 1 + b $end
$var wire 1 1 carry $end
$var wire 1 . sum $end
$upscope $end
$scope module HalfAdder2 $end
$var wire 1 . a $end
$var wire 1 , b $end
$var wire 1 0 carry $end
$var wire 1 / sum $end
$upscope $end
$upscope $end
$scope module FullAdder10 $end
$var wire 1 2 a $end
$var wire 1 3 b $end
$var wire 1 4 cin $end
$var wire 1 5 cout $end
$var wire 1 6 sum1 $end
$var wire 1 7 sum $end
$var wire 1 8 carry2 $end
$var wire 1 9 carry1 $end
$scope module HalfAdder1 $end
$var wire 1 2 a $end
$var wire 1 3 b $end
$var wire 1 9 carry $end
$var wire 1 6 sum $end
$upscope $end
$scope module HalfAdder2 $end
$var wire 1 6 a $end
$var wire 1 4 b $end
$var wire 1 8 carry $end
$var wire 1 7 sum $end
$upscope $end
$upscope $end
$scope module FullAdder11 $end
$var wire 1 : a $end
$var wire 1 ; b $end
$var wire 1 < cin $end
$var wire 1 = cout $end
$var wire 1 > sum1 $end
$var wire 1 ? sum $end
$var wire 1 @ carry2 $end
$var wire 1 A carry1 $end
$scope module HalfAdder1 $end
$var wire 1 : a $end
$var wire 1 ; b $end
$var wire 1 A carry $end
$var wire 1 > sum $end
$upscope $end
$scope module HalfAdder2 $end
$var wire 1 > a $end
$var wire 1 < b $end
$var wire 1 @ carry $end
$var wire 1 ? sum $end
$upscope $end
$upscope $end
$scope module FullAdder12 $end
$var wire 1 B a $end
$var wire 1 C b $end
$var wire 1 D cin $end
$var wire 1 E cout $end
$var wire 1 F sum1 $end
$var wire 1 G sum $end
$var wire 1 H carry2 $end
$var wire 1 I carry1 $end
$scope module HalfAdder1 $end
$var wire 1 B a $end
$var wire 1 C b $end
$var wire 1 I carry $end
$var wire 1 F sum $end
$upscope $end
$scope module HalfAdder2 $end
$var wire 1 F a $end
$var wire 1 D b $end
$var wire 1 H carry $end
$var wire 1 G sum $end
$upscope $end
$upscope $end
$scope module FullAdder13 $end
$var wire 1 J a $end
$var wire 1 K b $end
$var wire 1 L cin $end
$var wire 1 M cout $end
$var wire 1 N sum1 $end
$var wire 1 O sum $end
$var wire 1 P carry2 $end
$var wire 1 Q carry1 $end
$scope module HalfAdder1 $end
$var wire 1 J a $end
$var wire 1 K b $end
$var wire 1 Q carry $end
$var wire 1 N sum $end
$upscope $end
$scope module HalfAdder2 $end
$var wire 1 N a $end
$var wire 1 L b $end
$var wire 1 P carry $end
$var wire 1 O sum $end
$upscope $end
$upscope $end
$scope module FullAdder14 $end
$var wire 1 R a $end
$var wire 1 S b $end
$var wire 1 T cin $end
$var wire 1 U cout $end
$var wire 1 V sum1 $end
$var wire 1 W sum $end
$var wire 1 X carry2 $end
$var wire 1 Y carry1 $end
$scope module HalfAdder1 $end
$var wire 1 R a $end
$var wire 1 S b $end
$var wire 1 Y carry $end
$var wire 1 V sum $end
$upscope $end
$scope module HalfAdder2 $end
$var wire 1 V a $end
$var wire 1 T b $end
$var wire 1 X carry $end
$var wire 1 W sum $end
$upscope $end
$upscope $end
$scope module FullAdder15 $end
$var wire 1 Z a $end
$var wire 1 [ b $end
$var wire 1 \ cin $end
$var wire 1 % cout $end
$var wire 1 ] sum1 $end
$var wire 1 ^ sum $end
$var wire 1 _ carry2 $end
$var wire 1 ` carry1 $end
$scope module HalfAdder1 $end
$var wire 1 Z a $end
$var wire 1 [ b $end
$var wire 1 ` carry $end
$var wire 1 ] sum $end
$upscope $end
$scope module HalfAdder2 $end
$var wire 1 ] a $end
$var wire 1 \ b $end
$var wire 1 _ carry $end
$var wire 1 ^ sum $end
$upscope $end
$upscope $end
$scope module FullAdder2 $end
$var wire 1 a a $end
$var wire 1 b b $end
$var wire 1 c cin $end
$var wire 1 d cout $end
$var wire 1 e sum1 $end
$var wire 1 f sum $end
$var wire 1 g carry2 $end
$var wire 1 h carry1 $end
$scope module HalfAdder1 $end
$var wire 1 a a $end
$var wire 1 b b $end
$var wire 1 h carry $end
$var wire 1 e sum $end
$upscope $end
$scope module HalfAdder2 $end
$var wire 1 e a $end
$var wire 1 c b $end
$var wire 1 g carry $end
$var wire 1 f sum $end
$upscope $end
$upscope $end
$scope module FullAdder3 $end
$var wire 1 i a $end
$var wire 1 j b $end
$var wire 1 k cin $end
$var wire 1 l cout $end
$var wire 1 m sum1 $end
$var wire 1 n sum $end
$var wire 1 o carry2 $end
$var wire 1 p carry1 $end
$scope module HalfAdder1 $end
$var wire 1 i a $end
$var wire 1 j b $end
$var wire 1 p carry $end
$var wire 1 m sum $end
$upscope $end
$scope module HalfAdder2 $end
$var wire 1 m a $end
$var wire 1 k b $end
$var wire 1 o carry $end
$var wire 1 n sum $end
$upscope $end
$upscope $end
$scope module FullAdder4 $end
$var wire 1 q a $end
$var wire 1 r b $end
$var wire 1 s cin $end
$var wire 1 t cout $end
$var wire 1 u sum1 $end
$var wire 1 v sum $end
$var wire 1 w carry2 $end
$var wire 1 x carry1 $end
$scope module HalfAdder1 $end
$var wire 1 q a $end
$var wire 1 r b $end
$var wire 1 x carry $end
$var wire 1 u sum $end
$upscope $end
$scope module HalfAdder2 $end
$var wire 1 u a $end
$var wire 1 s b $end
$var wire 1 w carry $end
$var wire 1 v sum $end
$upscope $end
$upscope $end
$scope module FullAdder5 $end
$var wire 1 y a $end
$var wire 1 z b $end
$var wire 1 { cin $end
$var wire 1 | cout $end
$var wire 1 } sum1 $end
$var wire 1 ~ sum $end
$var wire 1 !" carry2 $end
$var wire 1 "" carry1 $end
$scope module HalfAdder1 $end
$var wire 1 y a $end
$var wire 1 z b $end
$var wire 1 "" carry $end
$var wire 1 } sum $end
$upscope $end
$scope module HalfAdder2 $end
$var wire 1 } a $end
$var wire 1 { b $end
$var wire 1 !" carry $end
$var wire 1 ~ sum $end
$upscope $end
$upscope $end
$scope module FullAdder6 $end
$var wire 1 #" a $end
$var wire 1 $" b $end
$var wire 1 %" cin $end
$var wire 1 &" cout $end
$var wire 1 '" sum1 $end
$var wire 1 (" sum $end
$var wire 1 )" carry2 $end
$var wire 1 *" carry1 $end
$scope module HalfAdder1 $end
$var wire 1 #" a $end
$var wire 1 $" b $end
$var wire 1 *" carry $end
$var wire 1 '" sum $end
$upscope $end
$scope module HalfAdder2 $end
$var wire 1 '" a $end
$var wire 1 %" b $end
$var wire 1 )" carry $end
$var wire 1 (" sum $end
$upscope $end
$upscope $end
$scope module FullAdder7 $end
$var wire 1 +" a $end
$var wire 1 ," b $end
$var wire 1 -" cin $end
$var wire 1 ." cout $end
$var wire 1 /" sum1 $end
$var wire 1 0" sum $end
$var wire 1 1" carry2 $end
$var wire 1 2" carry1 $end
$scope module HalfAdder1 $end
$var wire 1 +" a $end
$var wire 1 ," b $end
$var wire 1 2" carry $end
$var wire 1 /" sum $end
$upscope $end
$scope module HalfAdder2 $end
$var wire 1 /" a $end
$var wire 1 -" b $end
$var wire 1 1" carry $end
$var wire 1 0" sum $end
$upscope $end
$upscope $end
$scope module FullAdder8 $end
$var wire 1 3" a $end
$var wire 1 4" b $end
$var wire 1 5" cin $end
$var wire 1 6" cout $end
$var wire 1 7" sum1 $end
$var wire 1 8" sum $end
$var wire 1 9" carry2 $end
$var wire 1 :" carry1 $end
$scope module HalfAdder1 $end
$var wire 1 3" a $end
$var wire 1 4" b $end
$var wire 1 :" carry $end
$var wire 1 7" sum $end
$upscope $end
$scope module HalfAdder2 $end
$var wire 1 7" a $end
$var wire 1 5" b $end
$var wire 1 9" carry $end
$var wire 1 8" sum $end
$upscope $end
$upscope $end
$scope module FullAdder9 $end
$var wire 1 ;" a $end
$var wire 1 <" b $end
$var wire 1 =" cin $end
$var wire 1 >" cout $end
$var wire 1 ?" sum1 $end
$var wire 1 @" sum $end
$var wire 1 A" carry2 $end
$var wire 1 B" carry1 $end
$scope module HalfAdder1 $end
$var wire 1 ;" a $end
$var wire 1 <" b $end
$var wire 1 B" carry $end
$var wire 1 ?" sum $end
$upscope $end
$scope module HalfAdder2 $end
$var wire 1 ?" a $end
$var wire 1 =" b $end
$var wire 1 A" carry $end
$var wire 1 @" sum $end
$upscope $end
$upscope $end
$scope module HalfAdder1 $end
$var wire 1 C" a $end
$var wire 1 D" b $end
$var wire 1 E" carry $end
$var wire 1 F" sum $end
$upscope $end
$upscope $end
$upscope $end
$upscope $end
$enddefinitions $end
#0
$dumpvars
1F"
0E"
1D"
0C"
0B"
0A"
0@"
0?"
0>"
0="
0<"
0;"
0:"
09"
08"
07"
06"
05"
04"
03"
02"
01"
00"
0/"
0."
0-"
0,"
0+"
0*"
0)"
0("
0'"
0&"
0%"
0$"
0#"
0""
0!"
0~
0}
0|
0{
0z
0y
0x
0w
0v
0u
0t
0s
0r
0q
0p
0o
0n
0m
0l
0k
0j
0i
0h
0g
0f
0e
0d
0c
0b
0a
0`
0_
0^
0]
0\
0[
0Z
0Y
0X
0W
0V
0U
0T
0S
0R
0Q
0P
0O
0N
0M
0L
0K
0J
0I
0H
0G
0F
0E
0D
0C
0B
0A
0@
0?
0>
0=
0<
0;
0:
09
08
07
06
05
04
03
02
01
00
0/
0.
0-
0,
0+
0*
bz000000000000000 )
b1 (
b1 '
b0 &
0%
b1 $
b0 #
b0 "
b1 !
$end
#1
1/
1,
1f
1n
1v
1~
1("
10"
b11111110 !
b11111110 $
b11111110 (
0F"
bz000000000000001 )
1E"
1e
1m
1u
1}
1'"
1/"
1C"
1a
1i
1q
1y
1#"
1+"
b11111101 "
b11111101 #
b11111101 &
#2
0~
0("
1@"
b101010011110 !
b101010011110 $
b101010011110 (
1?
0}
0'"
1?"
1>
0y
0#"
1;"
1:
b101010011101 "
b101010011101 #
b101010011101 &
#3
0/
0,
0f
1("
00"
0@"
1G
b1100001011001 !
b1100001011001 $
b1100001011001 (
1F"
bz000000000000000 )
0E"
0e
1'"
0/"
0?"
1F
0C"
0a
1#"
0+"
0;"
1B
b1100001011000 "
b1100001011000 #
b1100001011000 &
#4
1/
0v
1~
0("
18"
1@"
b1111100101011 !
b1111100101011 $
b1111100101011 (
17
1.
0u
1}
0'"
17"
1?"
16
1*
0q
1y
0#"
13"
1;"
12
b1111100101010 "
b1111100101010 #
b1111100101010 &
#5
0/
1f
0n
1("
10"
08"
0@"
0?
b11010011100101 !
b11010011100101 $
b11010011100101 (
1O
0.
1e
0m
1'"
1/"
07"
0?"
0>
1N
0*
1a
0i
1#"
1+"
03"
0;"
0:
1J
b11010011100100 "
b11010011100100 #
b11010011100100 &
#6
0f
0("
00"
07
1?
0G
0O
b100100000100001 !
b100100000100001 $
b100100000100001 (
1W
0e
0'"
0/"
06
1>
0F
0N
1V
0a
0#"
0+"
02
1:
0B
0J
1R
b100100000100000 "
b100100000100000 #
b100100000100000 &
#7
1f
0~
18"
1@"
17
b101111100000101 !
b101111100000101 $
b101111100000101 (
1G
1e
0}
17"
1?"
16
1F
1a
0y
13"
1;"
12
1B
b101111100000100 "
b101111100000100 #
b101111100000100 &
#8
1/
1,
0f
1n
1v
10"
b101111110011010 !
b101111110011010 $
b101111110011010 (
0F"
bz000000000000001 )
1E"
0e
1m
1u
1/"
1C"
0a
1i
1q
1+"
b101111110011001 "
b101111110011001 #
b101111110011001 &
#9
1k
1d
1g
1c
bz000000000000111 )
1-
0/
10
0f
1n
1~
00"
08"
0@"
0G
b110110000111000 !
b110110000111000 $
b110110000111000 (
1O
1.
1e
0m
1}
0/"
07"
0?"
0F
1N
1*
1a
0i
1y
0+"
03"
0;"
0B
1J
b110110000110111 "
b110110000110111 #
b110110000110111 &
#10
0n
0k
0d
1f
0g
0c
0-
1/
00
0,
0v
0~
1("
07
0?
1G
b111000001000111 !
b111000001000111 $
b111000001000111 (
1F"
bz000000000000000 )
0E"
0u
0}
1'"
06
0>
1F
0C"
0q
0y
1#"
02
0:
1B
b111000001000110 "
b111000001000110 #
b111000001000110 &
#11
1,
1/
0f
1n
1v
1~
1@"
b111001001111010 !
b111001001111010 $
b111001001111010 (
0F"
bz000000000000001 )
1E"
0.
0e
1m
1u
1}
1?"
1C"
0*
0a
1i
1q
1y
1;"
b111001001111001 "
b111001001111001 #
b111001001111001 &
#12
1f
0v
0~
0("
10"
0@"
17
b111110010001110 !
b111110010001110 $
b111110010001110 (
1?
1e
0u
0}
0'"
1/"
0?"
16
1>
1a
0q
0y
0#"
1+"
0;"
12
1:
b111110010001101 "
b111110010001101 #
b111110010001101 &
#13
1v
1~
1("
00"
0?
0O
0W
b1001010001111110 !
b1001010001111110 $
b1001010001111110 (
1^
1u
1}
1'"
0/"
0>
0N
0V
1]
1q
1y
1#"
0+"
0:
0J
0R
1Z
b1001010001111101 "
b1001010001111101 #
b1001010001111101 &
#14
0/
0,
0n
0v
0~
0("
10"
1@"
b1001011010000101 !
b1001011010000101 $
b1001011010000101 (
1F"
bz000000000000000 )
0E"
0m
0u
0}
0'"
1/"
1?"
0C"
0i
0q
0y
0#"
1+"
1;"
b1001011010000100 "
b1001011010000100 #
b1001011010000100 &
#15
0f
1("
00"
18"
07
b1001101101000001 !
b1001101101000001 $
b1001101101000001 (
1?
0e
1'"
0/"
17"
06
1>
0a
1#"
0+"
13"
02
1:
b1001101101000000 "
b1001101101000000 #
b1001101101000000 &
#16
1/
1,
1f
1v
0("
08"
0@"
17
b1001110000010110 !
b1001110000010110 $
b1001110000010110 (
0F"
bz000000000000001 )
1E"
1e
1u
0'"
07"
0?"
16
1C"
1a
1q
0#"
03"
0;"
12
b1001110000010101 "
b1001110000010101 #
b1001110000010101 &
#17
0f
07
0?
0G
b1010000000010010 !
b1010000000010010 $
b1010000000010010 (
1O
0e
06
0>
0F
1N
0a
02
0:
0B
1J
b1010000000010001 "
b1010000000010001 #
b1010000000010001 &
#18
0f
0c
0-
0,
1/
00
1n
1("
10"
18"
1@"
1?
b1010101111011011 !
b1010101111011011 $
b1010101111011011 (
1F"
bz000000000000000 )
0E"
1.
1m
1'"
1/"
17"
1?"
1>
0C"
1*
1i
1#"
1+"
13"
1;"
1:
b1010101111011010 "
b1010101111011010 #
b1010101111011010 &
#19
1f
1c
1-
0/
10
1,
0n
0v
0("
17
0?
1G
b1011011110000100 !
b1011011110000100 $
b1011011110000100 (
0F"
bz000000000000011 )
1E"
0m
0u
0'"
16
0>
1F
1C"
0i
0q
0#"
12
0:
1B
b1011011110000011 "
b1011011110000011 #
b1011011110000011 &
#20
0f
0c
0-
1/
00
0,
1n
1~
1("
00"
0@"
07
0G
0O
1W
b1100000101101011 !
b1100000101101011 $
b1100000101101011 (
1F"
bz000000000000000 )
0E"
1m
1}
1'"
0/"
0?"
06
0F
0N
1V
0C"
1i
1y
1#"
0+"
0;"
02
0B
0J
1R
b1100000101101010 "
b1100000101101010 #
b1100000101101010 &
#21
1,
1/
0n
1v
0~
0("
10"
1@"
17
b1100011110010010 !
b1100011110010010 $
b1100011110010010 (
0F"
bz000000000000001 )
1E"
0.
0m
1u
0}
0'"
1/"
1?"
16
1C"
0*
0i
1q
0y
0#"
1+"
1;"
12
b1100011110010001 "
b1100011110010001 #
b1100011110010001 &
#22
1f
1c
bz000000000000011 )
1-
0/
10
00"
08"
0@"
b1100110000010100 !
b1100110000010100 $
b1100110000010100 (
1?
1.
0/"
07"
0?"
1>
1*
0+"
03"
0;"
1:
b1100110000010011 "
b1100110000010011 #
b1100110000010011 &
#23
1n
0v
1~
1("
10"
18"
07
0?
b1101000111101100 !
b1101000111101100 $
b1101000111101100 (
1G
1m
0u
1}
1'"
1/"
17"
06
0>
1F
1i
0q
1y
1#"
1+"
13"
02
0:
1B
b1101000111101011 "
b1101000111101011 #
b1101000111101011 &
#24
0f
0c
0-
1/
00
0,
1v
08"
17
b1101010011111011 !
b1101010011111011 $
b1101010011111011 (
1F"
bz000000000000000 )
0E"
1u
07"
16
0C"
1q
03"
12
b1101010011111010 "
b1101010011111010 #
b1101010011111010 &
#25
00"
1@"
07
b1101101001111011 !
b1101101001111011 $
b1101101001111011 (
1?
0/"
1?"
06
1>
0+"
1;"
02
1:
b1101101001111010 "
b1101101001111010 #
b1101101001111010 &
#26
0n
0v
0~
0("
10"
0@"
b1101110010000011 !
b1101110010000011 $
b1101110010000011 (
17
0m
0u
0}
0'"
1/"
0?"
16
0i
0q
0y
0#"
1+"
0;"
12
b1101110010000010 "
b1101110010000010 #
b1101110010000010 &
#27
0/
1n
1v
1~
1("
07
0?
0G
b1110000011111001 !
b1110000011111001 $
b1110000011111001 (
1O
0.
1m
1u
1}
1'"
06
0>
0F
1N
0*
1i
1q
1y
1#"
02
0:
0B
1J
b1110000011111000 "
b1110000011111000 #
b1110000011111000 &
#28
1k
1d
1g
1c
1-
10
1,
0/
0f
1n
0v
00"
17
b1110010001101000 !
b1110010001101000 $
b1110010001101000 (
0F"
bz000000000000111 )
1E"
1.
1e
0m
0u
0/"
16
1C"
1*
1a
0i
0q
0+"
12
b1110010001100111 "
b1110010001100111 #
b1110010001100111 &
#29
1%
0^
1_
1\
1U
0W
1X
1T
1M
0O
1P
1L
1E
1H
1D
1=
1@
1<
15
07
18
14
1>"
1A"
1="
16"
19"
15"
1."
11"
1-"
1&"
0("
1)"
1%"
1|
0~
1!"
1{
1t
1w
1s
bz111111111111111 )
1l
0n
1o
0v
00"
08"
0@"
0?
b0 !
b0 $
b0 (
0G
1m
1u
1/"
17"
1?"
1>
1F
1i
1q
1+"
13"
1;"
1:
1B
b1111111111111111 "
b1111111111111111 #
b1111111111111111 &
