testbench/tb_Or8Way.vcd
$date
	Fri Mar 24 15:52:09 2023
$end
$version
	Icarus Verilog
$end
$timescale
	1s
$end
$scope module tb_Or8Way $end
$var wire 1 ! out $end
$var reg 1 " a $end
$var reg 1 # b $end
$var reg 1 $ c $end
$var reg 1 % d $end
$var reg 1 & e $end
$var reg 1 ' f $end
$var reg 1 ( g $end
$var reg 1 ) h $end
$scope module mymodule $end
$var wire 1 " in1 $end
$var wire 1 # in2 $end
$var wire 1 $ in3 $end
$var wire 1 % in4 $end
$var wire 1 & in5 $end
$var wire 1 ' in6 $end
$var wire 1 ( in7 $end
$var wire 1 ) in8 $end
$var wire 1 ! out $end
$var wire 1 * w1 $end
$var wire 1 + w2 $end
$var wire 1 , w3 $end
$var wire 1 - w4 $end
$var wire 1 . w5 $end
$var wire 1 / w6 $end
$upscope $end
$upscope $end
$enddefinitions $end
#0
$dumpvars
0/
0.
0-
0,
0+
0*
0)
0(
0'
0&
0%
0$
0#
0"
0!
$end
#1
1!
1/
1-
1(
#2
0-
1,
1)
0(
1'
#3
0)
1&
#4
1.
1+
1%
#5
0/
0,
1)
0'
0&
0%
1$
#6
1/
1-
0)
1(
#7
1,
1'
#8
1)
1&
#9
0-
0+
1*
0)
0(
0'
0$
1#
#10
1-
1(
1'
#11
0-
1+
1)
0(
0&
1%
#12
1&
0%
1$
#13
0/
0,
0'
0&
1%
#14
1/
1,
1'
#15
0)
0'
1&
#16
1-
1(
#17
0,
1)
0&
0$
0#
1"
#18
1,
1'
1&
#19
0)
0'
0%
1$
#20
0-
1)
0(
1'
0&
1%
#22
0/
0,
0+
0)
0'
0%
0$
1#
#23
1/
1,
1)
1&
#24
1+
0)
1%
#25
1'
#26
1-
1)
1(
0&
0%
1$
#27
0)
0'
1&
#28
1)
1%
#29
1'
